{
  "sensors": [
    {
      "name": "BME680",
      "metrics": [
        "temperature",
        "humidity",
        "air-pressure",
        "voc-gas"
      ]
    },
    {
      "name": "SHT31-D",
      "metrics": [
        "temperature",
        "humidity"
      ]
    },
    {
      "name": "TSL2591",
      "metrics": [
        "lux",
        "visible-light",
        "IR-light"
      ]
    }
  ]
}